rtl/tb/tb_guard.vcd
$date
	Fri Apr 10 13:25:45 2026
$end
$version
	Icarus Verilog
$end
$timescale
	1ps
$end
$scope module tb_guard $end
$var wire 1 ! t2 $end
$var wire 1 " t1 $end
$var wire 1 # rom_valid $end
$var wire 144 $ rom_data [143:0] $end
$var wire 1 % guard_pass $end
$var wire 1 & g4 $end
$var wire 1 ' g3 $end
$var wire 1 ( g2 $end
$var wire 1 ) g1 $end
$var reg 5 * rom_addr [4:0] $end
$var reg 144 + vec [143:0] $end
$var integer 32 , fail_count [31:0] $end
$var integer 32 - idx [31:0] $end
$var integer 32 . pass_count [31:0] $end
$scope module u_rom $end
$var wire 5 / addr [4:0] $end
$var reg 144 0 data_out [143:0] $end
$var reg 1 # valid $end
$upscope $end
$scope module uut $end
$var wire 1 1 clk $end
$var wire 1 2 g1_comb $end
$var wire 1 3 guard_pass_comb $end
$var wire 1 4 is_kaf $end
$var wire 1 5 rst_n $end
$var wire 1 6 t1_comb $end
$var wire 1 7 t2_comb $end
$var wire 144 8 vec [143:0] $end
$var wire 11 9 u_val [10:0] $end
$var wire 8 : theta [7:0] $end
$var wire 1 ! t2_pass $end
$var wire 1 " t1_pass $end
$var wire 11 ; sum_q [10:0] $end
$var wire 10 < sum_n [9:0] $end
$var wire 11 = sum_k [10:0] $end
$var wire 8 > qx [7:0] $end
$var wire 8 ? qs [7:0] $end
$var wire 8 @ qp [7:0] $end
$var wire 8 A qc [7:0] $end
$var wire 8 B qa [7:0] $end
$var wire 8 C nd [7:0] $end
$var wire 8 D nb [7:0] $end
$var wire 8 E na [7:0] $end
$var wire 8 F kx [7:0] $end
$var wire 8 G ks [7:0] $end
$var wire 8 H kp [7:0] $end
$var wire 8 I kc [7:0] $end
$var wire 8 J ka [7:0] $end
$var wire 1 % guard_pass $end
$var wire 1 & g4_pass $end
$var wire 1 K g4_comb $end
$var wire 1 ' g3_pass $end
$var wire 1 L g3_comb $end
$var wire 1 ( g2_pass $end
$var wire 1 M g2_comb $end
$var wire 1 ) g1_pass $end
$var wire 8 N a_q [7:0] $end
$var wire 8 O a_n [7:0] $end
$var wire 8 P a_k [7:0] $end
$var parameter 32 Q PIPELINE_GUARD $end
$scope begin gen_combinational $end
$upscope $end
$upscope $end
$upscope $end
$enddefinitions $end
$comment Show the parameter values. $end
$dumpall
b0 Q
$end
#0
$dumpvars
bx P
bx O
bx N
xM
xL
xK
bx J
bx I
bx H
bx G
bx F
bx E
bx D
bx C
bx B
bx A
bx @
bx ?
bx >
bx =
bx <
bx ;
bx :
bx 9
bx 8
x7
x6
z5
x4
x3
x2
z1
b1000000000000000000000000000000000000000000000000000000000000000000000000000000000000000100000000000000000000000000000000 0
b1 /
b0 .
b1 -
b0 ,
bx +
b1 *
x)
x(
x'
x&
x%
b1000000000000000000000000000000000000000000000000000000000000000000000000000000000000000100000000000000000000000000000000 $
1#
x"
x!
$end
#1000
1%
13
1)
12
1!
17
1(
1M
04
1'
1L
1&
1K
1"
16
b0 :
b0 <
b0 E
b0 D
b0 C
b1 =
b1 H
b0 F
b0 G
b0 J
b0 I
b0 ;
b0 @
b0 9
b0 >
b0 ?
b0 B
b0 A
b0 O
b1 P
b0 N
b1000000000000000000000000000000000000000000000000000000000000000000000000000000000000000100000000000000000000000000000000 +
b1000000000000000000000000000000000000000000000000000000000000000000000000000000000000000100000000000000000000000000000000 8
#2000
b100000001000000010000000000000000000000000000000000000001000000000000000000000000000000010000000000000001000000000000000000000010 $
b100000001000000010000000000000000000000000000000000000001000000000000000000000000000000010000000000000001000000000000000000000010 0
b10 *
b10 /
b10 -
b1 .
#3000
1%
13
1)
12
b10 :
b1 <
b1 C
b0 H
b1 =
b1 F
b1 ;
b1 @
b1 O
1'
1L
b1 N
b100000001000000010000000000000000000000000000000000000001000000000000000000000000000000010000000000000001000000000000000000000010 +
b100000001000000010000000000000000000000000000000000000001000000000000000000000000000000010000000000000001000000000000000000000010 8
#4000
b100000001000000100000000000000000000000000000000000000001000000000000000000000000000000010000000000000000000000000000001000000010 $
b100000001000000100000000000000000000000000000000000000001000000000000000000000000000000010000000000000000000000000000001000000010 0
b11 *
b11 /
b11 -
b10 .
#5000
1%
13
1)
12
b10 E
b10 <
b0 C
b10 O
b100000001000000100000000000000000000000000000000000000001000000000000000000000000000000010000000000000000000000000000001000000010 +
b100000001000000100000000000000000000000000000000000000001000000000000000000000000000000010000000000000000000000000000001000000010 8
#6000
b100000001000000110000000000000000000000000000000000000001000000000000000000000000000000010000000000000000000000000000001100000010 $
b100000001000000110000000000000000000000000000000000000001000000000000000000000000000000010000000000000000000000000000001100000010 0
b100 *
b100 /
b100 -
b11 .
#7000
1%
13
1)
12
b11 <
b11 E
b11 O
b100000001000000110000000000000000000000000000000000000001000000000000000000000000000000010000000000000000000000000000001100000010 +
b100000001000000110000000000000000000000000000000000000001000000000000000000000000000000010000000000000000000000000000001100000010 8
#8000
b100000001000000010000000000000000000000000000000000000001000000000000000000000000000000010000000000000000000000010000000000000011 $
b100000001000000010000000000000000000000000000000000000001000000000000000000000000000000010000000000000000000000010000000000000011 0
b101 *
b101 /
b101 -
b100 .
#9000
1%
13
1)
12
b11 :
b0 E
b1 <
b1 D
b1 O
b100000001000000010000000000000000000000000000000000000001000000000000000000000000000000010000000000000000000000010000000000000011 +
b100000001000000010000000000000000000000000000000000000001000000000000000000000000000000010000000000000000000000010000000000000011 8
#10000
b100000001000000000000000000000000000000000000000000000001000000000000000000000000000000010000000000000000000000000000000000000011 $
b100000001000000000000000000000000000000000000000000000001000000000000000000000000000000010000000000000000000000000000000000000011 0
b110 *
b110 /
b110 -
b101 .
#11000
1%
13
1)
12
b0 <
b0 D
b0 O
b100000001000000000000000000000000000000000000000000000001000000000000000000000000000000010000000000000000000000000000000000000011 +
b100000001000000000000000000000000000000000000000000000001000000000000000000000000000000010000000000000000000000000000000000000011 8
#12000
b100000001000000010000000000000000000000000000000000000001000000000000000000000000000000010000000000000000000000000000000100000011 $
b100000001000000010000000000000000000000000000000000000001000000000000000000000000000000010000000000000000000000000000000100000011 0
b111 *
b111 /
b111 -
b110 .
#13000
1%
13
1)
12
b1 <
b1 E
b1 O
b100000001000000010000000000000000000000000000000000000001000000000000000000000000000000010000000000000000000000000000000100000011 +
b100000001000000010000000000000000000000000000000000000001000000000000000000000000000000010000000000000000000000000000000100000011 8
#14000
b100000000000000000000000000000001000000000000000000000000000000000000000000000000000000000000000000000000000000000000000000000001 $
b100000000000000000000000000000001000000000000000000000000000000000000000000000000000000000000000000000000000000000000000000000001 0
b1000 *
b1000 /
b1000 -
b111 .
#15000
1%
13
1)
12
b1 :
b0 <
b0 E
b0 =
b0 F
b0 @
b1 ;
b1 9
b1 B
b0 O
1(
1M
b0 P
b100000000000000000000000000000001000000000000000000000000000000000000000000000000000000000000000000000000000000000000000000000001 +
b100000000000000000000000000000001000000000000000000000000000000000000000000000000000000000000000000000000000000000000000000000001 8
#16000
b100000000000000010000000000000001000000000000000000000000000000000000000000000000000000000000000000000000000000000000000100000001 $
b100000000000000010000000000000001000000000000000000000000000000000000000000000000000000000000000000000000000000000000000100000001 0
b1001 *
b1001 /
b1001 -
b1000 .
#17000
1%
13
1)
12
b1 <
b1 E
b1 O
b100000000000000010000000000000001000000000000000000000000000000000000000000000000000000000000000000000000000000000000000100000001 +
b100000000000000010000000000000001000000000000000000000000000000000000000000000000000000000000000000000000000000000000000100000001 8
#18000
b100000000000000000000000000000000000000010000000000000000000000000000000000000000000000000000000000000000000000000000000000000001 $
b100000000000000000000000000000000000000010000000000000000000000000000000000000000000000000000000000000000000000000000000000000001 0
b1010 *
b1010 /
b1010 -
b1001 .
#19000
1%
13
1)
12
b0 <
b0 E
b1 ?
b1 ;
b1 9
b0 B
b0 O
b100000000000000000000000000000000000000010000000000000000000000000000000000000000000000000000000000000000000000000000000000000001 +
b100000000000000000000000000000000000000010000000000000000000000000000000000000000000000000000000000000000000000000000000000000001 8
#20000
b100000000000000010000000000000000000000010000000000000000000000000000000000000000000000000000000000000000000000000000000100000001 $
b100000000000000010000000000000000000000010000000000000000000000000000000000000000000000000000000000000000000000000000000100000001 0
b1011 *
b1011 /
b1011 -
b1010 .
#21000
1%
13
1)
12
b1 <
b1 E
b1 O
b100000000000000010000000000000000000000010000000000000000000000000000000000000000000000000000000000000000000000000000000100000001 +
b100000000000000010000000000000000000000010000000000000000000000000000000000000000000000000000000000000000000000000000000100000001 8
#22000
b1100000000000000000000000000000000000000000000001000000001000000000000000000000000000000000000000000000000000000000000000000000100 $
b1100000000000000000000000000000000000000000000001000000001000000000000000000000000000000000000000000000000000000000000000000000100 0
b1100 *
b1100 /
b1100 -
b1011 .
#23000
1%
13
1)
12
b100 :
b0 <
b0 E
b1 @
b10 >
b11 ;
b10 9
b0 ?
b0 O
1'
1L
b11 N
b1100000000000000000000000000000000000000000000001000000001000000000000000000000000000000000000000000000000000000000000000000000100 +
b1100000000000000000000000000000000000000000000001000000001000000000000000000000000000000000000000000000000000000000000000000000100 8
#24000
b1100000000000000110000000000000000000000000000001000000001000000000000000000000000000000000000000000000000000000000000001100000100 $
b1100000000000000110000000000000000000000000000001000000001000000000000000000000000000000000000000000000000000000000000001100000100 0
b1101 *
b1101 /
b1101 -
b1100 .
#25000
1%
13
1)
12
b11 <
b11 E
b11 O
b1100000000000000110000000000000000000000000000001000000001000000000000000000000000000000000000000000000000000000000000001100000100 +
b1100000000000000110000000000000000000000000000001000000001000000000000000000000000000000000000000000000000000000000000001100000100 8
#26000
b1000000000000000000000000100000000000000000000000000000001000000000000000000000000000000000000000000000000000000000000000000000110 $
b1000000000000000000000000100000000000000000000000000000001000000000000000000000000000000000000000000000000000000000000000000000110 0
b1110 *
b1110 /
b1110 -
b1101 .
#27000
1%
13
1)
12
b110 :
b0 <
b0 E
b0 >
b10 ;
b100 9
b1 A
b0 O
1'
1L
b10 N
b1000000000000000000000000100000000000000000000000000000001000000000000000000000000000000000000000000000000000000000000000000000110 +
b1000000000000000000000000100000000000000000000000000000001000000000000000000000000000000000000000000000000000000000000000000000110 8
#28000
b1000000000000000010000000100000000000000000000000000000001000000000000000000000000000000000000000000000000000000000000000100000110 $
b1000000000000000010000000100000000000000000000000000000001000000000000000000000000000000000000000000000000000000000000000100000110 0
b1111 *
b1111 /
b1111 -
b1110 .
#29000
1%
13
1)
12
b1 <
b1 E
b1 O
b1000000000000000010000000100000000000000000000000000000001000000000000000000000000000000000000000000000000000000000000000100000110 +
b1000000000000000010000000100000000000000000000000000000001000000000000000000000000000000000000000000000000000000000000000100000110 8
#30000
b100000001000000000000000100000000000000000000000000000000000000000000000100000000000000000000000000000000000000000000000000000100 $
b100000001000000000000000100000000000000000000000000000000000000000000000100000000000000000000000000000000000000000000000000000100 0
b10000 *
b10000 /
b10000 -
b1111 .
#31000
1%
13
1)
12
b100 :
b0 <
b0 E
b1 =
b1 J
b1 ;
b0 @
b0 O
1(
1M
b1 P
1'
1L
b1 N
b100000001000000000000000100000000000000000000000000000000000000000000000100000000000000000000000000000000000000000000000000000100 +
b100000001000000000000000100000000000000000000000000000000000000000000000100000000000000000000000000000000000000000000000000000100 8
#32000
b100000001000000010000000100000000000000000000000000000000000000000000000100000000000000000000000000000000000000000000000100000100 $
b100000001000000010000000100000000000000000000000000000000000000000000000100000000000000000000000000000000000000000000000100000100 0
b10001 *
b10001 /
b10001 -
b10000 .
#33000
1%
13
1)
12
b1 <
b1 E
b1 O
b100000001000000010000000100000000000000000000000000000000000000000000000100000000000000000000000000000000000000000000000100000100 +
b100000001000000010000000100000000000000000000000000000000000000000000000100000000000000000000000000000000000000000000000100000100 8
#34000
b1000000000000000000000000000000000000000000000000100000001000000000000000000000000000000000000000000000000000000000000000000000011 $
b1000000000000000000000000000000000000000000000000100000001000000000000000000000000000000000000000000000000000000000000000000000011 0
b10010 *
b10010 /
b10010 -
b10001 .
#35000
1%
13
1)
12
1&
1K
b11 :
b0 <
b0 E
b0 =
b0 J
b1 @
b1 >
b10 ;
b1 9
b0 A
b0 O
1(
1M
b0 P
1'
1L
b10 N
b1000000000000000000000000000000000000000000000000100000001000000000000000000000000000000000000000000000000000000000000000000000011 +
b1000000000000000000000000000000000000000000000000100000001000000000000000000000000000000000000000000000000000000000000000000000011 8
#36000
b1000000000000000010000000000000000000000000000000100000001000000000000000000000000000000000000000000000000000000000000000100000011 $
b1000000000000000010000000000000000000000000000000100000001000000000000000000000000000000000000000000000000000000000000000100000011 0
b10011 *
b10011 /
b10011 -
b10010 .
#37000
1%
13
1)
12
b1 <
b1 E
b1 O
b1000000000000000010000000000000000000000000000000100000001000000000000000000000000000000000000000000000000000000000000000100000011 +
b1000000000000000010000000000000000000000000000000100000001000000000000000000000000000000000000000000000000000000000000000100000011 8
#38000
b1000000001000000010000000100000000000000000000000000000001000000000000000000000000000000010000000000000000000000000000000100000101 $
b1000000001000000010000000100000000000000000000000000000001000000000000000000000000000000010000000000000000000000000000000100000101 0
b10100 *
b10100 /
b10100 -
b10011 .
#39000
1%
13
b101 :
b1 =
b1 F
b0 >
b10 ;
b100 9
b1 A
1(
1M
b1 P
b1000000001000000010000000100000000000000000000000000000001000000000000000000000000000000010000000000000000000000000000000100000101 +
b1000000001000000010000000100000000000000000000000000000001000000000000000000000000000000010000000000000000000000000000000100000101 8
#40000
b1000000000000000100000000100000000000000000000000000000001000000000000000000000000000000000000000000000000000000000000001000000110 $
b1000000000000000100000000100000000000000000000000000000001000000000000000000000000000000000000000000000000000000000000001000000110 0
b10101 *
b10101 /
b10101 -
b10100 .
#41000
1%
13
1)
12
b110 :
b10 <
b10 E
b0 =
b0 F
b10 O
1(
1M
b0 P
b1000000000000000100000000100000000000000000000000000000001000000000000000000000000000000000000000000000000000000000000001000000110 +
b1000000000000000100000000100000000000000000000000000000001000000000000000000000000000000000000000000000000000000000000001000000110 8
#42000
b10000000000000001000000000000000000000000000000000000000000000000000000010000000000000000000000000000000000000000000000000000000000000010 $
b10000000000000001000000000000000000000000000000000000000000000000000000010000000000000000000000000000000000000000000000000000000000000010 0
b10110 *
b10110 /
b10110 -
b10101 .
#43000
1%
13
14
1!
17
1)
12
1&
1K
b10 :
b0 <
b0 E
b1 =
b1 I
b0 @
b0 ;
b0 9
b0 A
b0 O
1(
1M
b1 P
1'
1L
b0 N
b10000000000000001000000000000000000000000000000000000000000000000000000010000000000000000000000000000000000000000000000000000000000000010 +
b10000000000000001000000000000000000000000000000000000000000000000000000010000000000000000000000000000000000000000000000000000000000000010 8
#44000
b100000001000000000000000000000000000000000000000000000001000000000000000000000000000000010000000000000000000000000000000000000001 $
b100000001000000000000000000000000000000000000000000000001000000000000000000000000000000010000000000000000000000000000000000000001 0
b10111 *
b10111 /
b10111 -
b10110 .
#45000
1%
13
04
b1 :
b1 F
b1 =
b0 I
b1 ;
b1 @
1'
1L
b1 N
b100000001000000000000000000000000000000000000000000000001000000000000000000000000000000010000000000000000000000000000000000000001 +
b100000001000000000000000000000000000000000000000000000001000000000000000000000000000000010000000000000000000000000000000000000001 8
#46000
b100000001000000000000000100000000000000000000000000000000000000010000000000000000000000000000000000000000000000000000000000000100 $
b100000001000000000000000100000000000000000000000000000000000000010000000000000000000000000000000000000000000000000000000000000100 0
b11000 *
b11000 /
b11000 -
b10111 .
#47000
b100 :
b0 F
b1 =
b1 I
b0 @
b1 ;
b100 9
b1 A
b100000001000000000000000100000000000000000000000000000000000000010000000000000000000000000000000000000000000000000000000000000100 +
b100000001000000000000000100000000000000000000000000000000000000010000000000000000000000000000000000000000000000000000000000000100 8
#48000
b100000001000000010000000000000000000000000000000000000001000000000000000000000000000000010000000000000000000000000000000100000010 $
b100000001000000010000000000000000000000000000000000000001000000000000000000000000000000010000000000000000000000000000000100000010 0
b11001 *
b11001 /
b11001 -
b11000 .
#49000
1%
13
1)
12
1&
1K
b10 :
b1 <
b1 E
b1 F
b1 =
b0 I
b1 @
b1 ;
b0 9
b0 A
b1 O
b100000001000000010000000000000000000000000000000000000001000000000000000000000000000000010000000000000000000000000000000100000010 +
b100000001000000010000000000000000000000000000000000000001000000000000000000000000000000010000000000000000000000000000000100000010 8
#50000
b1000000000000000000000000100000000000000010000000000000000000000000000000000000000000000000000000000000000000000000000000000000101 $
b1000000000000000000000000100000000000000010000000000000000000000000000000000000000000000000000000000000000000000000000000000000101 0
b11010 *
b11010 /
b11010 -
b11001 .
#51000
1%
13
1)
12
b101 :
b0 <
b0 E
b0 =
b0 F
b0 @
b1 ?
b10 ;
b101 9
b1 A
b0 O
1(
1M
b0 P
1'
1L
b10 N
b1000000000000000000000000100000000000000010000000000000000000000000000000000000000000000000000000000000000000000000000000000000101 +
b1000000000000000000000000100000000000000010000000000000000000000000000000000000000000000000000000000000000000000000000000000000101 8
#52000
b1000000001000000000000001000000000000000000000000000000000000000010000000000000000000000000000000000000000000000000000000000001000 $
b1000000001000000000000001000000000000000000000000000000000000000010000000000000000000000000000000000000000000000000000000000001000 0
b11011 *
b11011 /
b11011 -
b11010 .
#53000
1%
13
b1000 :
b1 =
b1 I
b0 ?
b10 ;
b1000 9
b10 A
1(
1M
b1 P
b1000000001000000000000001000000000000000000000000000000000000000010000000000000000000000000000000000000000000000000000000000001000 +
b1000000001000000000000001000000000000000000000000000000000000000010000000000000000000000000000000000000000000000000000000000001000 8
#54000
b1000000000000000100000000000000000000000000000000100000001000000000000000000000000000000000000000000000010000000000000000000000011 $
b1000000000000000100000000000000000000000000000000100000001000000000000000000000000000000000000000000000010000000000000000000000011 0
b11100 *
b11100 /
b11100 -
b11011 .
#55000
1%
13
1)
12
1&
1K
b11 :
b10 <
b10 C
b0 =
b0 I
b1 @
b1 >
b10 ;
b1 9
b0 A
b10 O
1(
1M
b0 P
b1000000000000000100000000000000000000000000000000100000001000000000000000000000000000000000000000000000010000000000000000000000011 +
b1000000000000000100000000000000000000000000000000100000001000000000000000000000000000000000000000000000010000000000000000000000011 8
#56000
b100000001000000010000000000000000000000000000000000000001000000000000000000000000000000010000000000000001000000000000000000000010 $
b100000001000000010000000000000000000000000000000000000001000000000000000000000000000000010000000000000001000000000000000000000010 0
b10 *
b10 /
b11101 -
b11100 .
#57000
0%
03
0)
02
b10 :
b1 <
b1 C
b1 =
b1 F
b1 ;
b0 9
b0 >
b1100011 O
1(
1M
b1 P
1'
1L
b1 N
b100000001011000110000000000000000000000000000000000000001000000000000000000000000000000010000000000000001000000000000000000000010 +
b100000001011000110000000000000000000000000000000000000001000000000000000000000000000000010000000000000001000000000000000000000010 8
#58000
b11101 .
#59000
1)
12
0(
0M
b0 P
b1 O
b100000000000000010000000000000000000000000000000000000001000000000000000000000000000000010000000000000001000000000000000000000010 +
b100000000000000010000000000000000000000000000000000000001000000000000000000000000000000010000000000000001000000000000000000000010 8
#60000
b11110 .
#61000
0'
0L
b1100011 N
1(
1M
b1 P
b110001100000001000000010000000000000000000000000000000000000001000000000000000000000000000000010000000000000001000000000000000000000010 +
b110001100000001000000010000000000000000000000000000000000000001000000000000000000000000000000010000000000000001000000000000000000000010 8
#62000
b1000000001000000000000001000000000000000000000000000000000000000010000000000000000000000000000000000000000000000000000000000001000 $
b1000000001000000000000001000000000000000000000000000000000000000010000000000000000000000000000000000000000000000000000000000001000 0
b11011 *
b11011 /
b11111 .
#63000
0&
0K
1)
12
b1000 :
b0 <
b0 C
b0 F
b1 =
b1 I
b0 @
b1010 ;
b101000 9
b1010 A
b0 O
b10 N
b1000000001000000000000101000000000000000000000000000000000000000010000000000000000000000000000000000000000000000000000000000001000 +
b1000000001000000000000101000000000000000000000000000000000000000010000000000000000000000000000000000000000000000000000000000001000 8
#64000
1'
1L
1&
1K
0"
06
b1 G
b0 :
b1 =
b0 I
b0 ;
b0 9
b0 A
0(
0M
b0 P
b0 N
b1000000000000000000000000000000000000000000000000 +
b1000000000000000000000000000000000000000000000000 8
b100000 .
#65000
0!
07
1"
16
b10 I
b10 =
b0 G
b100000000000000000000000000000000000000000000000000000000000000000 +
b100000000000000000000000000000000000000000000000000000000000000000 8
b100001 .
#66000
b100010 .
