rtl/tb/tb_hisab.vcd
$date
	Fri Apr 10 13:25:41 2026
$end
$version
	Icarus Verilog
$end
$timescale
	1s
$end
$scope module tb_hisab $end
$var wire 1 ! done $end
$var wire 1 " t2_ref $end
$var wire 1 # t1_ref $end
$var wire 1 $ rom_valid $end
$var wire 144 % rom_data [143:0] $end
$var wire 32 & pack_word2 [31:0] $end
$var wire 32 ' pack_word1 [31:0] $end
$var wire 32 ( pack_word0 [31:0] $end
$var wire 8 ) guard_status [7:0] $end
$var wire 1 * guard_pass_ref $end
$var wire 1 + g4_ref $end
$var wire 1 , g3_ref $end
$var wire 1 - g2_ref $end
$var wire 1 . g1_ref $end
$var wire 32 / crc_out [31:0] $end
$var parameter 32 0 ALIF_CRC32 $end
$var parameter 32 1 ALIF_PACK0 $end
$var parameter 32 2 ALIF_PACK1 $end
$var parameter 32 3 ALIF_PACK2 $end
$var parameter 32 4 BA_CRC32 $end
$var parameter 32 5 BA_PACK0 $end
$var parameter 32 6 BA_PACK1 $end
$var parameter 32 7 BA_PACK2 $end
$var parameter 32 8 YA_CRC32 $end
$var parameter 32 9 YA_PACK0 $end
$var parameter 32 : YA_PACK1 $end
$var parameter 32 ; YA_PACK2 $end
$var reg 8 < expected_guard_ref [7:0] $end
$var reg 8 = extra_byte [7:0] $end
$var reg 32 > gpr_s1 [31:0] $end
$var reg 32 ? gpr_s2 [31:0] $end
$var reg 2 @ op [1:0] $end
$var reg 5 A rom_addr [4:0] $end
$var reg 144 B vec_in [143:0] $end
$var integer 32 C fail_count [31:0] $end
$var integer 32 D i [31:0] $end
$var integer 32 E pass_count [31:0] $end
$scope module u_guard_ref $end
$var wire 1 F clk $end
$var wire 1 G g1_comb $end
$var wire 1 H guard_pass_comb $end
$var wire 1 I is_kaf $end
$var wire 1 J rst_n $end
$var wire 1 K t1_comb $end
$var wire 1 L t2_comb $end
$var wire 144 M vec [143:0] $end
$var wire 11 N u_val [10:0] $end
$var wire 8 O theta [7:0] $end
$var wire 1 " t2_pass $end
$var wire 1 # t1_pass $end
$var wire 11 P sum_q [10:0] $end
$var wire 10 Q sum_n [9:0] $end
$var wire 11 R sum_k [10:0] $end
$var wire 8 S qx [7:0] $end
$var wire 8 T qs [7:0] $end
$var wire 8 U qp [7:0] $end
$var wire 8 V qc [7:0] $end
$var wire 8 W qa [7:0] $end
$var wire 8 X nd [7:0] $end
$var wire 8 Y nb [7:0] $end
$var wire 8 Z na [7:0] $end
$var wire 8 [ kx [7:0] $end
$var wire 8 \ ks [7:0] $end
$var wire 8 ] kp [7:0] $end
$var wire 8 ^ kc [7:0] $end
$var wire 8 _ ka [7:0] $end
$var wire 1 * guard_pass $end
$var wire 1 + g4_pass $end
$var wire 1 ` g4_comb $end
$var wire 1 , g3_pass $end
$var wire 1 a g3_comb $end
$var wire 1 - g2_pass $end
$var wire 1 b g2_comb $end
$var wire 1 . g1_pass $end
$var wire 8 c a_q [7:0] $end
$var wire 8 d a_n [7:0] $end
$var wire 8 e a_k [7:0] $end
$var parameter 32 f PIPELINE_GUARD $end
$scope begin gen_combinational $end
$upscope $end
$upscope $end
$scope module u_hisab $end
$var wire 32 g crc_out [31:0] $end
$var wire 1 ! done $end
$var wire 8 h extra_byte [7:0] $end
$var wire 32 i gpr_s1 [31:0] $end
$var wire 32 j gpr_s2 [31:0] $end
$var wire 1 k is_kaf $end
$var wire 2 l op [1:0] $end
$var wire 1 m t1 $end
$var wire 1 n t2 $end
$var wire 144 o vec_in [143:0] $end
$var wire 16 p sum_q [15:0] $end
$var wire 16 q sum_n [15:0] $end
$var wire 16 r sum_k [15:0] $end
$var wire 32 s pack_word2 [31:0] $end
$var wire 32 t pack_word1 [31:0] $end
$var wire 32 u pack_word0 [31:0] $end
$var wire 8 v guard_status [7:0] $end
$var wire 1 w g4 $end
$var wire 1 x g3 $end
$var wire 1 y g2 $end
$var wire 1 z g1 $end
$var wire 32 { crc_9 [31:0] $end
$var wire 32 | crc_8 [31:0] $end
$var wire 32 } crc_7 [31:0] $end
$var wire 32 ~ crc_6 [31:0] $end
$var wire 32 !" crc_5 [31:0] $end
$var wire 32 "" crc_4 [31:0] $end
$var wire 32 #" crc_3 [31:0] $end
$var wire 32 $" crc_2 [31:0] $end
$var wire 32 %" crc_13 [31:0] $end
$var wire 32 &" crc_12 [31:0] $end
$var wire 32 '" crc_11 [31:0] $end
$var wire 32 (" crc_10 [31:0] $end
$var wire 32 )" crc_1 [31:0] $end
$var wire 32 *" crc_0 [31:0] $end
$var wire 16 +" U_val [15:0] $end
$scope function crc32_byte $end
$var reg 32 ," crc [31:0] $end
$var reg 32 -" crc_in [31:0] $end
$var reg 8 ." data_byte [7:0] $end
$var integer 32 /" j [31:0] $end
$upscope $end
$scope begin comp_extract[0] $end
$var parameter 2 0" gi $end
$upscope $end
$scope begin comp_extract[1] $end
$var parameter 2 1" gi $end
$upscope $end
$scope begin comp_extract[2] $end
$var parameter 3 2" gi $end
$upscope $end
$scope begin comp_extract[3] $end
$var parameter 3 3" gi $end
$upscope $end
$scope begin comp_extract[4] $end
$var parameter 4 4" gi $end
$upscope $end
$scope begin comp_extract[5] $end
$var parameter 4 5" gi $end
$upscope $end
$scope begin comp_extract[6] $end
$var parameter 4 6" gi $end
$upscope $end
$scope begin comp_extract[7] $end
$var parameter 4 7" gi $end
$upscope $end
$scope begin comp_extract[8] $end
$var parameter 5 8" gi $end
$upscope $end
$scope begin comp_extract[9] $end
$var parameter 5 9" gi $end
$upscope $end
$scope begin comp_extract[10] $end
$var parameter 5 :" gi $end
$upscope $end
$scope begin comp_extract[11] $end
$var parameter 5 ;" gi $end
$upscope $end
$scope begin comp_extract[12] $end
$var parameter 5 <" gi $end
$upscope $end
$scope begin comp_extract[13] $end
$var parameter 5 =" gi $end
$upscope $end
$scope begin comp_extract[14] $end
$var parameter 5 >" gi $end
$upscope $end
$scope begin comp_extract[15] $end
$var parameter 5 ?" gi $end
$upscope $end
$scope begin comp_extract[16] $end
$var parameter 6 @" gi $end
$upscope $end
$scope begin comp_extract[17] $end
$var parameter 6 A" gi $end
$upscope $end
$upscope $end
$scope module u_rom $end
$var wire 5 B" addr [4:0] $end
$var reg 144 C" data_out [143:0] $end
$var reg 1 $ valid $end
$upscope $end
$upscope $end
$enddefinitions $end
$comment Show the parameter values. $end
$dumpall
b10001 A"
b10000 @"
b1111 ?"
b1110 >"
b1101 ="
b1100 <"
b1011 ;"
b1010 :"
b1001 9"
b1000 8"
b111 7"
b110 6"
b101 5"
b100 4"
b11 3"
b10 2"
b1 1"
b0 0"
b0 f
b11111100100000 ;
b100000000000000001000000000001 :
b1000110000 9
b11010010101101111000011010101001 8
b11111100010000 7
b10001000000000000000000000001 6
b10000000100100000 5
b10011010001100010001010111001100 4
b11111100000000 3
b1000000000000000000000000 2
b100000000000000000000 1
b11101111101111100101000101101110 0
$end
#0
$dumpvars
b1000000000000000000000000000000000000000000000000000000000000000000000000000000000000000100000000000000000000000000000000 C"
b1 B"
b1000 /"
bx ."
b10011101 -"
b0 ,"
bx +"
b1010101111110101101100111010000 *"
b11110010101000000100010110001 )"
b0 ("
b0 '"
b0 &"
b0 %"
b11001011011111111110011110000100 $"
b10011101000110010000100001001000 #"
b100111010001100100001000 ""
b1001110100011001 !"
b10011101 ~
b0 }
b0 |
b0 {
xz
xy
xx
xw
b0xxxxxx v
bx u
bx t
b0xxxxxxxxxxxxxx s
bx r
bx q
bx p
bx o
xn
xm
b0 l
xk
b0 j
b0 i
b0 h
b11111111111111111111111111111111 g
bx e
bx d
bx c
xb
xa
x`
bx _
bx ^
bx ]
bx \
bx [
bx Z
bx Y
bx X
bx W
bx V
bx U
bx T
bx S
bx R
bx Q
bx P
bx O
bx N
bx M
xL
xK
1J
xI
xH
xG
0F
b0 E
b1 D
b0 C
bx B
b1 A
b0 @
b0 ?
b0 >
b0 =
bx <
b11111111111111111111111111111111 /
x.
x-
x,
x+
x*
b0xxxxxx )
bx (
bx '
b0xxxxxxxxxxxxxx &
b1000000000000000000000000000000000000000000000000000000000000000000000000000000000000000100000000000000000000000000000000 %
1$
x#
x"
1!
$end
#1
1*
1H
b11011001100011011110001001111011 ("
b1011011101110001010011111101001 {
b1100110000010011111010010111111 |
b11101111101111100101000101101110 /
b11101111101111100101000101101110 g
b10011011110101001100101110100101 &"
1.
1G
1"
1L
b1111000100110101101000010101010 ""
b110110011110111101000000100110 !"
b11001111100011001110111001001001 ~
b1111110011110111010111011010 }
b10000010000011010111010010001 %"
1n
b10110000000010010001010111000000 '"
b10000010000011010111010010001 ,"
b1000 /"
b111111 ."
b10011011110101001100101110100101 -"
1-
1b
0I
1,
1a
1+
1`
1#
1K
1z
1y
b100000000000000000000 (
b100000000000000000000 u
0k
1x
1w
b111111 )
b111111 v
1m
b1000000000000000000000000 '
b1000000000000000000000000 t
b11111100000000 &
b11111100000000 s
b0 O
b0 Q
b0 Z
b0 Y
b0 X
b1 R
b1 ]
b0 [
b0 \
b0 _
b0 ^
b0 P
b0 U
b0 N
b0 S
b0 T
b0 W
b0 V
b0 d
b1 e
b0 c
b0 q
b1 r
b0 p
b0 +"
b1000000000000000000000000000000000000000000000000000000000000000000000000000000000000000100000000000000000000000000000000 B
b1000000000000000000000000000000000000000000000000000000000000000000000000000000000000000100000000000000000000000000000000 M
b1000000000000000000000000000000000000000000000000000000000000000000000000000000000000000100000000000000000000000000000000 o
#2
b100000001000000010000000000000000000000000000000000000001000000000000000000000000000000010000000000000001000000000000000000000010 %
b100000001000000010000000000000000000000000000000000000001000000000000000000000000000000010000000000000001000000000000000000000010 C"
b10 A
b10 B"
b10 D
b100 E
b111111 <
#3
1*
1H
b10000001001011101101110001000111 ("
b11111101111001101001001111000011 }
b10010000110010101000101011010100 {
b1000011111101001111000001100010 ""
b11010100111110001100010000010010 !"
b10000100011010101011100100011010 ~
b1110101100101110100010100001111 |
b10000010100010011101101000011101 '"
b10011010001100010001010111001100 /
b10011010001100010001010111001100 g
b1111110001100111111010101100111 &"
b1111110001100111111010101100111 -"
1.
1G
b10000000100100000 (
b10000000100100000 u
b10001000000000000000000000001 '
b10001000000000000000000000001 t
b1100101110011101110101000110011 %"
b1000 /"
b1100101110011101110101000110011 ,"
b111111 ."
b10 O
b1 Q
b1 X
b0 ]
b1 R
b1 [
b1 P
b1 U
b1 d
1,
1a
b1 c
b1 q
b1 r
b1 p
1z
b11111100010000 &
b11111100010000 s
b111111 )
b111111 v
1x
b100000001000000010000000000000000000000000000000000000001000000000000000000000000000000010000000000000001000000000000000000000010 B
b100000001000000010000000000000000000000000000000000000001000000000000000000000000000000010000000000000001000000000000000000000010 M
b100000001000000010000000000000000000000000000000000000001000000000000000000000000000000010000000000000001000000000000000000000010 o
#4
b100000001000000100000000000000000000000000000000000000001000000000000000000000000000000010000000000000000000000000000001000000010 %
b100000001000000100000000000000000000000000000000000000001000000000000000000000000000000010000000000000000000000000000001000000010 C"
b11 A
b11 B"
b11 D
b1000 E
#5
b11011101111011010001111011001011 ("
1*
1H
b11100000011000100000001001101111 {
b10110111111010110111000100001010 |
b1010110001011010011000101111111 }
b10011110111101010101110000110101 ~
b1000011001010011110101110001100 &"
b10101101111110101001000101001110 ""
b10010001110010011001011000000110 !"
b10101101110101000011010000100010 /
b10101101110101000011010000100010 g
b1000000000000101110011001111000 '"
b1000011001010011110101110001100 -"
1.
1G
b10000000000100010 (
b10000000000100010 u
b1010010001010111100101111011101 %"
b1000 /"
b1010010001010111100101111011101 ,"
b111111 ."
b100001000000000000000000000001 '
b100001000000000000000000000001 t
b10 Z
b10 Q
b0 X
b10 d
b10 q
b11111100010000 &
b11111100010000 s
b111111 )
b111111 v
1z
b100000001000000100000000000000000000000000000000000000001000000000000000000000000000000010000000000000000000000000000001000000010 B
b100000001000000100000000000000000000000000000000000000001000000000000000000000000000000010000000000000000000000000000001000000010 M
b100000001000000100000000000000000000000000000000000000001000000000000000000000000000000010000000000000000000000000000001000000010 o
#6
b100000001000000110000000000000000000000000000000000000001000000000000000000000000000000010000000000000000000000000000001100000010 %
b100000001000000110000000000000000000000000000000000000001000000000000000000000000000000010000000000000000000000000000001100000010 C"
b100 A
b100 B"
b100 D
b1100 E
#7
b1111011100110100001010101111111 ("
b101011001111101101000111001010 {
1*
1H
b10001010100010110101100010111010 |
b11101110100100010101011000011010 }
b10011111001101110011011000000010 ~
b10001000110100101010011101000111 !"
b11110100100001110110110011110 &"
b11011010111111011010000111011000 ""
b1011110001100001111110001101100 /
b1011110001100001111110001101100 g
b10010001000111111111011010000010 '"
b11110100100001110110110011110 -"
1.
1G
b10000000000100011 (
b10000000000100011 u
b10100001110011110000001110010011 %"
b1000 /"
b10100001110011110000001110010011 ,"
b111111 ."
b110001000000000000000000000001 '
b110001000000000000000000000001 t
b11 Q
b11 Z
b11 d
b11 q
b11111100010000 &
b11111100010000 s
b111111 )
b111111 v
1z
b100000001000000110000000000000000000000000000000000000001000000000000000000000000000000010000000000000000000000000000001100000010 B
b100000001000000110000000000000000000000000000000000000001000000000000000000000000000000010000000000000000000000000000001100000010 M
b100000001000000110000000000000000000000000000000000000001000000000000000000000000000000010000000000000000000000000000001100000010 o
#8
b100000001000000010000000000000000000000000000000000000001000000000000000000000000000000010000000000000000000000010000000000000011 %
b100000001000000010000000000000000000000000000000000000001000000000000000000000000000000010000000000000000000000010000000000000011 C"
b101 A
b101 B"
b101 D
b10000 E
#9
b101110011110101001000110110111 ("
1*
1H
b11001110100111000011011001111101 {
b11111101110100101110001001110111 |
b10110000000110110000110100011011 }
b11001011100101010011100101111010 ~
b1100010111000101000011010100011 &"
b1011110010000111110000000000110 ""
b11110100100010101111011010110001 !"
b110001001001100001000010110 /
b110001001001100001000010110 g
b111111100110110111110001001100 '"
b1100010111000101000011010100011 -"
1.
1G
b10001000000110000 (
b10001000000110000 u
b11111001110110110011110111101001 %"
b1000 /"
b11111001110110110011110111101001 ,"
b111111 ."
b10001000000000000000000000001 '
b10001000000000000000000000001 t
b11 O
b0 Z
b1 Q
b1 Y
b1 d
b1 q
b11111100010000 &
b11111100010000 s
b111111 )
b111111 v
1z
b100000001000000010000000000000000000000000000000000000001000000000000000000000000000000010000000000000000000000010000000000000011 B
b100000001000000010000000000000000000000000000000000000001000000000000000000000000000000010000000000000000000000010000000000000011 M
b100000001000000010000000000000000000000000000000000000001000000000000000000000000000000010000000000000000000000010000000000000011 o
#10
b100000001000000000000000000000000000000000000000000000001000000000000000000000000000000010000000000000000000000000000000000000011 %
b100000001000000000000000000000000000000000000000000000001000000000000000000000000000000010000000000000000000000000000000000000011 C"
b110 A
b110 B"
b110 D
b10100 E
#11
b101101101011001001001100101100 ("
1*
1H
b10101110011111001010000111111111 {
b10101101110010111011010111101000 |
b10101100001111011010111001101011 }
b10000001010101110010101100101011 ~
b1010100100110111010010111011001 &"
b11101001001111011110011011010101 !"
b10110110110000100010001100010111 /
b10110110110000100010001100010111 g
b1000101111100101111000011100110 '"
b1010100100110111010010111011001 -"
1.
1G
b10000000000110000 (
b10000000000110000 u
b1001001001111011101110011101000 %"
b1000 /"
b1001001001111011101110011101000 ,"
b111111 ."
b1000000000000000000000001 '
b1000000000000000000000001 t
b0 Q
b0 Y
b0 d
b0 q
b11111100010000 &
b11111100010000 s
b111111 )
b111111 v
1z
b100000001000000000000000000000000000000000000000000000001000000000000000000000000000000010000000000000000000000000000000000000011 B
b100000001000000000000000000000000000000000000000000000001000000000000000000000000000000010000000000000000000000000000000000000011 M
b100000001000000000000000000000000000000000000000000000001000000000000000000000000000000010000000000000000000000000000000000000011 o
#12
b100000001000000010000000000000000000000000000000000000001000000000000000000000000000000010000000000000000000000000000000100000011 %
b100000001000000010000000000000000000000000000000000000001000000000000000000000000000000010000000000000000000000000000000100000011 C"
b111 A
b111 B"
b111 D
b11000 E
#13
b10001011110110111001100010011000 ("
b1100101001000000111001001011010 {
1*
1H
b10010000101010111001110001011000 |
b10100100000011100100100001110 }
b10000000100101010100000100011100 ~
b11110000001001101101011110010100 !"
b1001001000101010001111001011 &"
b101001010001001101000010010000 ""
b1000101001001101110101101011001 /
b1000101001001101110101101011001 g
b10010100111011111110000000011100 '"
b1001001000101010001111001011 -"
1.
1G
b10000000000110001 (
b10000000000110001 u
b10111010110110010001010010100110 %"
b1000 /"
b10111010110110010001010010100110 ,"
b111111 ."
b10001000000000000000000000001 '
b10001000000000000000000000001 t
b1 Q
b1 Z
b1 d
b1 q
b11111100010000 &
b11111100010000 s
b111111 )
b111111 v
1z
b100000001000000010000000000000000000000000000000000000001000000000000000000000000000000010000000000000000000000000000000100000011 B
b100000001000000010000000000000000000000000000000000000001000000000000000000000000000000010000000000000000000000000000000100000011 M
b100000001000000010000000000000000000000000000000000000001000000000000000000000000000000010000000000000000000000000000000100000011 o
#14
b100000000000000000000000000000001000000000000000000000000000000000000000000000000000000000000000000000000000000000000000000000001 %
b100000000000000000000000000000001000000000000000000000000000000000000000000000000000000000000000000000000000000000000000000000001 C"
b1000 A
b1000 B"
b1000 D
b11100 E
#15
1*
1H
b1111100101110011100001001110111 !"
b10101000101000011000000010100 }
b1000011101111111001011101101 {
b1001000010000001001011101001111 &"
b1100101001011011100000011001110 ""
b11001110000111010101110101011101 ~
b11010110011111100000001001101 |
b11000011000001001111100101010011 ("
b10101111101100101100111001010100 /
b10101111101100101100111001010100 g
b11110010101000010000010010110111 '"
b1001000010000001001011101001111 -"
1.
1G
b10000 (
b10000 u
b1010000010011010011000110101011 %"
b1000 /"
b1010000010011010011000110101011 ,"
b111111 ."
b100000000000000000000 '
b100000000000000000000 t
b1 O
b0 Q
b0 Z
b0 R
b0 [
b0 U
b1 P
b1 N
b1 W
b0 d
1-
1b
b0 e
b0 q
b0 r
b1 p
b1 +"
1z
b11111100010000 &
b11111100010000 s
b111111 )
b111111 v
1y
b100000000000000000000000000000001000000000000000000000000000000000000000000000000000000000000000000000000000000000000000000000001 B
b100000000000000000000000000000001000000000000000000000000000000000000000000000000000000000000000000000000000000000000000000000001 M
b100000000000000000000000000000001000000000000000000000000000000000000000000000000000000000000000000000000000000000000000000000001 o
#16
b100000000000000010000000000000001000000000000000000000000000000000000000000000000000000000000000000000000000000000000000100000001 %
b100000000000000010000000000000001000000000000000000000000000000000000000000000000000000000000000000000000000000000000000100000001 C"
b1001 A
b1001 B"
b1001 D
b100000 E
#17
b1100101011100111111001011100111 ("
b11000011001010110010000101001000 {
1*
1H
b100111101011111110100111111101 |
b10101101101010000101011101110001 }
b11001111110111110011011101101010 ~
b1100101101000101111001100110110 !"
b10101111110011001000101011101 &"
b10010001010101111000001011000 ""
b1011100010101100000011000011010 /
b1011100010101100000011000011010 g
b100011101111000001010001001101 '"
b10101111110011001000101011101 -"
1.
1G
b10001 (
b10001 u
b10100011101010011111100111100101 %"
b1000 /"
b10100011101010011111100111100101 ,"
b111111 ."
b10000000100000000000000000000 '
b10000000100000000000000000000 t
b1 Q
b1 Z
b1 d
b1 q
b11111100010000 &
b11111100010000 s
b111111 )
b111111 v
1z
b100000000000000010000000000000001000000000000000000000000000000000000000000000000000000000000000000000000000000000000000100000001 B
b100000000000000010000000000000001000000000000000000000000000000000000000000000000000000000000000000000000000000000000000100000001 M
b100000000000000010000000000000001000000000000000000000000000000000000000000000000000000000000000000000000000000000000000100000001 o
#18
b100000000000000000000000000000000000000010000000000000000000000000000000000000000000000000000000000000000000000000000000000000001 %
b100000000000000000000000000000000000000010000000000000000000000000000000000000000000000000000000000000000000000000000000000000001 C"
b1010 A
b1010 B"
b1010 D
b100100 E
#19
1*
1H
b11010110011111100000001001101 |
b10101000101000011000000010100 }
b11001110000111010101110101011101 ~
b1111100101110011100001001110111 !"
b11101100110110100101001101011010 &"
b1100101001011011100000011001110 ""
b1111111011100001100001001111011 {
b11000111101010001101100001110110 ("
b11000010110010111011000001111011 /
b11000010110010111011000001111011 g
b10111001101000010111110011010001 '"
b11101100110110100101001101011010 -"
1.
1G
b10000 (
b10000 u
b111101001101000100111110000100 %"
b1000 /"
b111101001101000100111110000100 ,"
b111111 ."
b100000000 '
b100000000 t
b0 Q
b0 Z
b1 T
b1 P
b1 N
b0 W
b0 d
b0 q
b1 p
b1 +"
b11111100010000 &
b11111100010000 s
b111111 )
b111111 v
1z
b100000000000000000000000000000000000000010000000000000000000000000000000000000000000000000000000000000000000000000000000000000001 B
b100000000000000000000000000000000000000010000000000000000000000000000000000000000000000000000000000000000000000000000000000000001 M
b100000000000000000000000000000000000000010000000000000000000000000000000000000000000000000000000000000000000000000000000000000001 o
#20
b100000000000000010000000000000000000000010000000000000000000000000000000000000000000000000000000000000000000000000000000100000001 %
b100000000000000010000000000000000000000010000000000000000000000000000000000000000000000000000000000000000000000000000000100000001 C"
b1011 A
b1011 B"
b1011 D
b101000 E
#21
b1100001110111111101001111000010 ("
b10110100001011000001000111011110 {
1*
1H
b100111101011111110100111111101 |
b10101101101010000101011101110001 }
b11001111110111110011011101101010 ~
b1100101101000101111001100110110 !"
b10110001011000110101010101001000 &"
b10010001010101111000001011000 ""
b110001001011110111100000110101 /
b110001001011110111100000110101 g
b1101000101111000110110000101011 '"
b10110001011000110101010101001000 -"
1.
1G
b10001 (
b10001 u
b11001110110100001000011111001010 %"
b1000 /"
b11001110110100001000011111001010 ,"
b111111 ."
b10000000000000000000100000000 '
b10000000000000000000100000000 t
b1 Q
b1 Z
b1 d
b1 q
b11111100010000 &
b11111100010000 s
b111111 )
b111111 v
1z
b100000000000000010000000000000000000000010000000000000000000000000000000000000000000000000000000000000000000000000000000100000001 B
b100000000000000010000000000000000000000010000000000000000000000000000000000000000000000000000000000000000000000000000000100000001 M
b100000000000000010000000000000000000000010000000000000000000000000000000000000000000000000000000000000000000000000000000100000001 o
#22
b1100000000000000000000000000000000000000000000001000000001000000000000000000000000000000000000000000000000000000000000000000000100 %
b1100000000000000000000000000000000000000000000001000000001000000000000000000000000000000000000000000000000000000000000000000000100 C"
b1100 A
b1100 B"
b1100 D
b101100 E
#23
b11011110000110010011111110110110 }
1*
1H
b10100010101000010111001111101101 ~
b11000110000000101001111100100011 !"
b1101001001000000100111000010101 ("
b1110010001101001000100111010 ""
b1010101110110110011111100010000 |
b100110100011001110101110010011 {
b1101101101101001100010010100101 '"
b11011001101001101100011110000000 /
b11011001101001101100011110000000 g
b10000000000010001101001100001111 &"
b10000000000010001101001100001111 -"
1.
1G
b1000000 (
b1000000 u
b10000000000001 '
b10000000000001 t
b100110010110010011100001111111 %"
b1000 /"
b100110010110010011100001111111 ,"
b111111 ."
b100 O
b0 Q
b0 Z
b1 U
b10 S
b11 P
b10 N
b0 T
b0 d
1,
1a
b11 c
b0 q
b11 p
b10 +"
1z
b11111100110000 &
b11111100110000 s
b111111 )
b111111 v
1x
b1100000000000000000000000000000000000000000000001000000001000000000000000000000000000000000000000000000000000000000000000000000100 B
b1100000000000000000000000000000000000000000000001000000001000000000000000000000000000000000000000000000000000000000000000000000100 M
b1100000000000000000000000000000000000000000000001000000001000000000000000000000000000000000000000000000000000000000000000000000100 o
#24
b1100000000000000110000000000000000000000000000001000000001000000000000000000000000000000000000000000000000000000000000001100000100 %
b1100000000000000110000000000000000000000000000001000000001000000000000000000000000000000000000000000000000000000000000001100000100 C"
b1101 A
b1101 B"
b1101 D
b110000 E
#25
b1011000110010000101010010001000 ("
b10100000000110001001100100111101 {
1*
1H
b10010011110110100010111000000 |
b11001100101011001001000001011000 }
b10100000111001111100110110110100 ~
b11101101001011111100110011100000 !"
b1100110110000111101100100111001 &"
b10010111010011111100000010000000 ""
b10110111110101001100100010011 /
b10110111110101001100100010011 g
b11000101111000101111001111101010 '"
b1100110110000111101100100111001 -"
1.
1G
b1000011 (
b1000011 u
b11101001000001010110011011101100 %"
b1000 /"
b11101001000001010110011011101100 ,"
b111111 ."
b110000000000000010000000000001 '
b110000000000000010000000000001 t
b11 Q
b11 Z
b11 d
b11 q
b11111100110000 &
b11111100110000 s
b111111 )
b111111 v
1z
b1100000000000000110000000000000000000000000000001000000001000000000000000000000000000000000000000000000000000000000000001100000100 B
b1100000000000000110000000000000000000000000000001000000001000000000000000000000000000000000000000000000000000000000000001100000100 M
b1100000000000000110000000000000000000000000000001000000001000000000000000000000000000000000000000000000000000000000000001100000100 o
#26
b1000000000000000000000000100000000000000000000000000000001000000000000000000000000000000000000000000000000000000000000000000000110 %
b1000000000000000000000000100000000000000000000000000000001000000000000000000000000000000000000000000000000000000000000000000000110 C"
b1110 A
b1110 B"
b1110 D
b110100 E
#27
b10010100000110100001000000010100 |
b1111110001010111001000010001000 }
1*
1H
b10011010111011000011010100001101 ~
b1010011100001101011101110000001 !"
b110101001010001011000111110010 ""
b11010010011101100111001101101 {
b1000100000111100110001110111101 ("
b10110101100101001101000101010010 '"
b10100101010001001001111001100000 /
b10100101010001001001111001100000 g
b10111110101111101000010011000001 &"
b10111110101111101000010011000001 -"
1.
1G
b1100000 (
b1100000 u
b10000000000000001 '
b10000000000000001 t
b1011010101110110110000110011111 %"
b1000 /"
b1011010101110110110000110011111 ,"
b111111 ."
b110 O
b0 Q
b0 Z
b0 S
b10 P
b100 N
b1 V
b0 d
1,
1a
b10 c
b0 q
b10 p
b100 +"
1z
b11111100100000 &
b11111100100000 s
b111111 )
b111111 v
1x
b1000000000000000000000000100000000000000000000000000000001000000000000000000000000000000000000000000000000000000000000000000000110 B
b1000000000000000000000000100000000000000000000000000000001000000000000000000000000000000000000000000000000000000000000000000000110 M
b1000000000000000000000000100000000000000000000000000000001000000000000000000000000000000000000000000000000000000000000000000000110 o
#28
b1000000000000000010000000100000000000000000000000000000001000000000000000000000000000000000000000000000000000000000000000100000110 %
b1000000000000000010000000100000000000000000000000000000001000000000000000000000000000000000000000000000000000000000000000100000110 C"
b1111 A
b1111 B"
b1111 D
b111000 E
#29
b11100010011010010110100000001001 ("
b11010001000100100001110111001000 {
1*
1H
b10101001011110100011100110100100 |
b11000110100101111111011111101101 }
b10011011001011100101111100111010 ~
b1001010100111011000101011000000 !"
b11100011000001111000001011010011 &"
b1000010001011111000000101100100 ""
b1010110101000000101011000101110 /
b1010110101000000101011000101110 g
b1100100100010011100000110101000 '"
b11100011000001111000001011010011 -"
1.
1G
b1100001 (
b1100001 u
b10101001010111111010100111010001 %"
b1000 /"
b10101001010111111010100111010001 ,"
b111111 ."
b10000000000010000000000000001 '
b10000000000010000000000000001 t
b1 Q
b1 Z
b1 d
b1 q
b11111100100000 &
b11111100100000 s
b111111 )
b111111 v
1z
b1000000000000000010000000100000000000000000000000000000001000000000000000000000000000000000000000000000000000000000000000100000110 B
b1000000000000000010000000100000000000000000000000000000001000000000000000000000000000000000000000000000000000000000000000100000110 M
b1000000000000000010000000100000000000000000000000000000001000000000000000000000000000000000000000000000000000000000000000100000110 o
#30
b100000001000000000000000100000000000000000000000000000000000000000000000100000000000000000000000000000000000000000000000000000100 %
b100000001000000000000000100000000000000000000000000000000000000000000000100000000000000000000000000000000000000000000000000000100 C"
b10000 A
b10000 B"
b10000 D
b111100 E
#31
1*
1H
b10100010101000010111001111101101 ~
b110010110111010101011101110011 ("
b11000110000000101001111100100011 !"
b101001110111001000000101101 {
b1110010001101001000100111010 ""
b10101001000111100000111100100000 }
b111011110001110011111011000111 |
b10111110001110011100110101000111 '"
b1011001101101100001100101100101 /
b1011001101101100001100101100101 g
b11110101101100011111110110011010 &"
b11110101101100011111110110011010 -"
1.
1G
b1000000000000000001000000 (
b1000000000000000001000000 u
b1000000010000000000000000 '
b1000000010000000000000000 t
b10100110010010011110011010011010 %"
b1000 /"
b10100110010010011110011010011010 ,"
b111111 ."
b100 O
b0 Q
b0 Z
b1 R
b1 _
b1 P
b0 U
b0 d
1-
1b
b1 e
1,
1a
b1 c
b0 q
b1 r
b1 p
1z
1y
b11111100010000 &
b11111100010000 s
b111111 )
b111111 v
1x
b100000001000000000000000100000000000000000000000000000000000000000000000100000000000000000000000000000000000000000000000000000100 B
b100000001000000000000000100000000000000000000000000000000000000000000000100000000000000000000000000000000000000000000000000000100 M
b100000001000000000000000100000000000000000000000000000000000000000000000100000000000000000000000000000000000000000000000000000100 o
#32
b100000001000000010000000100000000000000000000000000000000000000000000000100000000000000000000000000000000000000000000000100000100 %
b100000001000000010000000100000000000000000000000000000000000000000000000100000000000000000000000000000000000000000000000100000100 C"
b10001 A
b10001 B"
b10001 D
b1000000 E
#33
b10010100101010100101110011000111 ("
b11001110011001110100001110001000 {
1*
1H
b110101001110001011101110111 |
b10001101000100110100001000101 }
b10100011011000110001100111011010 ~
b11011111000110011010111001100010 !"
b10101000000010001111101110001000 &"
b1111001010000011010000110101100 ""
b10101010010100101101000100101011 /
b10101010010100101101000100101011 g
b1101111001001001101110110111101 '"
b10101000000010001111101110001000 -"
1.
1G
b1000000000000000001000001 (
b1000000000000000001000001 u
b1010101101011010010111011010100 %"
b1000 /"
b1010101101011010010111011010100 ,"
b111111 ."
b10001000000010000000000000000 '
b10001000000010000000000000000 t
b1 Q
b1 Z
b1 d
b1 q
b11111100010000 &
b11111100010000 s
b111111 )
b111111 v
1z
b100000001000000010000000100000000000000000000000000000000000000000000000100000000000000000000000000000000000000000000000100000100 B
b100000001000000010000000100000000000000000000000000000000000000000000000100000000000000000000000000000000000000000000000100000100 M
b100000001000000010000000100000000000000000000000000000000000000000000000100000000000000000000000000000000000000000000000100000100 o
#34
b1000000000000000000000000000000000000000000000000100000001000000000000000000000000000000000000000000000000000000000000000000000011 %
b1000000000000000000000000000000000000000000000000100000001000000000000000000000000000000000000000000000000000000000000000000000011 C"
b10010 A
b10010 B"
b10010 D
b1000100 E
